calculator/simulation/qsim/calculator.msim.vcd
$comment
	File created using the following command:
		vcd file calculator.msim.vcd -direction
$end
$date
	Sun May 15 14:49:56 2022
$end
$version
	ModelSim Version 10.5b
$end
$timescale
	1ps
$end

$scope module button_debouncer_vlg_vec_tst $end
$var reg 1 ! clk $end
$var reg 1 " in $end
$var wire 1 # edj $end
$var wire 1 $ fall $end
$var wire 1 % out $end
$var wire 1 & rise $end

$scope module i1 $end
$var wire 1 ' gnd $end
$var wire 1 ( vcc $end
$var wire 1 ) unknown $end
$var tri1 1 * devclrn $end
$var tri1 1 + devpor $end
$var tri1 1 , devoe $end
$var wire 1 - out~output_o $end
$var wire 1 . edj~output_o $end
$var wire 1 / rise~output_o $end
$var wire 1 0 fall~output_o $end
$var wire 1 1 clk~input_o $end
$var wire 1 2 in~input_o $end
$var wire 1 3 w_edj~combout $end
$var wire 1 4 counter~2_combout $end
$var wire 1 5 counter~3_combout $end
$var wire 1 6 Equal0~1_combout $end
$var wire 1 7 counter~1_combout $end
$var wire 1 8 counter~0_combout $end
$var wire 1 9 Equal0~0_combout $end
$var wire 1 : out~0_combout $end
$var wire 1 ; out~reg0_q $end
$var wire 1 < edj~0_combout $end
$var wire 1 = edj~1_combout $end
$var wire 1 > edj~reg0_q $end
$var wire 1 ? rise~0_combout $end
$var wire 1 @ rise~reg0_q $end
$var wire 1 A fall~0_combout $end
$var wire 1 B fall~reg0_q $end
$var wire 1 C counter [3] $end
$var wire 1 D counter [2] $end
$var wire 1 E counter [1] $end
$var wire 1 F counter [0] $end
$upscope $end
$upscope $end
$enddefinitions $end
#0
$dumpvars
0!
1"
0#
0$
0%
0&
0'
1(
x)
1*
1+
1,
0-
0.
0/
00
01
12
13
14
05
06
07
08
09
0:
0;
0<
0=
0>
0?
0@
0A
0B
0F
0E
0D
0C
$end
#10000
1!
11
1F
15
04
#20000
0!
01
#30000
1!
11
1E
0F
1<
14
#40000
0!
01
#50000
1!
11
1F
16
05
04
17
#60000
0!
01
#70000
1!
11
1D
0E
0F
0<
06
18
07
14
08
17
#80000
0!
01
#90000
1!
11
1F
15
04
#100000
0!
01
#110000
1!
11
1E
0F
1<
14
#120000
0!
01
#130000
1!
11
1F
16
05
04
18
07
#140000
0!
01
#150000
1!
11
1C
0D
0E
0F
0<
06
17
14
07
#160000
0!
01
#170000
1!
11
1F
15
04
#180000
0!
01
#190000
1!
11
1E
0F
1<
14
#200000
0!
01
#210000
1!
11
1F
16
05
04
17
#220000
0!
01
#230000
1!
11
1D
0E
0F
0<
06
08
07
14
18
17
#240000
0!
01
#250000
1!
11
1F
15
04
#260000
0!
01
#270000
1!
11
1E
0F
1<
14
#280000
0!
01
#290000
1!
11
1F
19
16
1=
05
04
1?
1:
07
08
#300000
0!
01
#310000
1!
11
0C
0D
0E
0F
1@
1>
1;
1-
1.
1/
09
0<
06
03
1&
1#
1%
0=
0?
#320000
0!
01
#330000
1!
11
0@
0>
0.
0/
0&
0#
#340000
0!
01
#350000
1!
11
#360000
0!
01
#370000
1!
11
#380000
0!
01
#390000
1!
11
#400000
0!
01
#410000
1!
11
#420000
0!
01
#430000
1!
11
#440000
0!
01
#450000
1!
11
#460000
0!
01
#470000
1!
11
#480000
0!
01
#490000
1!
11
#500000
0!
01
#510000
1!
11
#520000
0!
01
#530000
1!
11
#540000
0!
01
#550000
1!
11
#560000
0!
01
#570000
1!
11
#580000
0!
01
#590000
1!
11
#600000
0!
01
#610000
1!
11
#620000
0!
01
#630000
1!
11
#640000
0!
01
#650000
1!
11
#660000
0!
01
#670000
1!
11
#680000
0!
01
#690000
1!
11
#700000
0!
01
#710000
1!
11
#720000
0!
01
#730000
1!
11
#740000
0!
01
#750000
1!
11
#760000
0!
01
#770000
1!
11
#780000
0!
01
#790000
1!
11
#800000
0!
01
#810000
1!
11
#820000
0!
01
#830000
1!
11
#840000
0!
01
#850000
1!
11
#860000
0!
01
#870000
1!
11
#880000
0!
01
#890000
1!
11
#900000
0!
01
#910000
1!
11
#920000
0!
01
#930000
1!
11
#940000
0!
01
#950000
1!
11
#960000
0!
01
#970000
1!
11
#980000
0!
01
#990000
1!
11
